<svg 
 xmlns="http://www.w3.org/2000/svg"
 xmlns:xlink="http://www.w3.org/1999/xlink"
 width="1500px" height="1px">

<path fill-rule="evenodd"  fill="rgb(111, 176, 72)"
 d="M-0.000,1.000 L-0.000,0.000 L65.000,0.000 L65.000,1.000 L-0.000,1.000 "/>

</svg>