<svg width="50px" height="40px">
   <rect x="0" y="0" width="50" height="10" rx="5" fill="#709dca" />
   <rect x="0" y="15" width="50" height="10" rx="5" fill="#709dca" />
   <rect x="0" y="30" width="50" height="10" rx="5" fill="#709dca" />
</svg>