<?xml version="1.0" encoding="utf-8"?>
<!-- Generator: Adobe Illustrator 16.0.0, SVG Export Plug-In . SVG Version: 6.00 Build 0)  -->
<!DOCTYPE svg PUBLIC "-//W3C//DTD SVG 1.1//EN" "http://www.w3.org/Graphics/SVG/1.1/DTD/svg11.dtd">
<svg version="1.1" id="Capa_1" xmlns="http://www.w3.org/2000/svg" xmlns:xlink="http://www.w3.org/1999/xlink"
width="50px" height="40px">
<path fill="none" d="M0,0h24v24H0V0z"/>
<rect x="0" y="0" width="50" height="10" rx="5" fill="#709dca" />
<rect x="0" y="15" width="50" height="10" rx="5" fill="#709dca" />
<rect x="0" y="30" width="50" height="10" rx="5" fill="#709dca" />
</svg>
